ply
format ascii 1.0
comment VCGLIB generated
element vertex 182
property float x
property float y
property float z
property float nx
property float ny
property float nz
element face 92
property list uchar int vertex_indices
end_header
3.578632 -0.598551 -24.4915 0 0 -2 
3.578632 -1 -24.4915 0 0 -1 
-3.860873 -1 -24.4915 0 0 -2 
-3.860872 -0.598551 -24.4915 0 0 -1 
3.578633 -0.598552 3.265434 0 0 3 
-3.860873 -0.598551 3.265434 0 0 3 
-3.860873 -1 3.265434 0 0 2 
3.578631 -1.000001 3.265434 0 0 1 
3.578632 -1 -24.4915 2 2.34301e-06 -6.824494e-08 
3.578632 -0.598551 -24.4915 1 0 0 
3.578632 -0.598551 -10.70882 3 2.255604e-06 -1.315255e-07 
3.578632 -0.598551 -10.70882 -0.7282 -0.6853648 0 
3.578633 -0.598552 -3.173527 -0.7282 -0.6853648 0 
3.578633 -0.598552 3.265434 -0.7282 -0.6853648 0 
3.578633 -0.598552 3.265434 1 -5.345056e-06 4.294738e-08 
3.578631 -1.000001 3.265434 1 -5.345056e-06 4.294738e-08 
3.578632 -1 -24.4915 1 -5.345056e-06 4.294738e-08 
3.578633 -0.598552 3.265434 3 2.34301e-06 -6.824494e-08 
3.578632 -1 -24.4915 -1.281906e-07 -2 -3.435806e-08 
3.578631 -1.000001 3.265434 -6.409529e-08 -1 -1.717903e-08 
-3.860873 -1 3.265434 -1.281906e-07 -2 -3.435806e-08 
-3.860873 -1 -24.4915 -6.409529e-08 -1 -1.717903e-08 
-3.860872 -0.598551 -24.4915 -2 -7.153358e-08 -6.975069e-08 
-3.860873 -1 -24.4915 -1 2.37558e-06 0 
-3.860873 -1 3.265434 -4 -7.153358e-08 -6.975069e-08 
-3.860873 -0.598551 3.265434 -1 0 0 
-3.860873 -0.598551 -3.190792 -2 0 0 
-3.860873 -0.598551 -10.81889 -2 -2.447114e-06 -6.975069e-08 
3.578633 4.856915 -10.70882 0.01479452 -2.586243e-09 -0.9998906 
3.578632 -0.598551 -10.70882 0.01479452 -2.586243e-09 -0.9998906 
0.903652 -0.598551 -10.74839 0.01479452 -2.586243e-09 -0.9998906 
3.578633 4.856915 -10.70882 0.01479564 -5.507592e-07 -0.9998905 
0.903652 -0.598551 -10.74839 0.01479564 -5.507592e-07 -0.9998905 
0.935273 2.226851 -10.74793 0.01479564 -5.507592e-07 -0.9998905 
-1.251691 -0.598551 -10.78028 0.01479447 -2.616835e-09 -0.9998906 
-3.860873 -0.598551 -10.81889 0.01479447 -2.616835e-09 -0.9998906 
-3.860872 4.856916 -10.81889 0.02958886 -2.909925e-07 -1.999781 
3.578633 4.856915 -10.70882 0.01479324 1.86256e-06 -0.9998906 
0.935273 2.226851 -10.74793 0.01479324 1.86256e-06 -0.9998906 
-1.243476 2.280334 -10.78016 0.01479324 1.86256e-06 -0.9998906 
-1.243476 2.280334 -10.78016 0.01479485 1.79922e-07 -0.9998905 
-1.251691 -0.598551 -10.78028 0.01479485 1.79922e-07 -0.9998905 
-3.860872 4.856916 -10.81889 0.01479485 1.79922e-07 -0.9998905 
-1.243476 2.280334 -10.78016 0.01479439 -2.883756e-07 -0.9998906 
3.578633 4.856915 -10.70882 0.01479439 -2.883756e-07 -0.9998906 
-3.860873 -0.598551 -10.81889 -2 1.748108e-07 -1.250212e-07 
-3.860873 -0.598551 -3.190792 -3 8.740538e-08 -6.251061e-08 
-3.860873 4.856915 -3.190792 -3 1.748108e-07 -1.250212e-07 
-3.860872 4.856916 -10.81889 -1 8.740538e-08 -6.251061e-08 
-3.860872 -0.598551 -24.4915 0 3 0 
-3.860873 -0.598551 -10.81889 0 1 0 
-1.251691 -0.598551 -10.78028 0 2 0 
0.903652 -0.598551 -10.74839 0 3 0 
3.578632 -0.598551 -10.70882 0 1 0 
3.578632 -0.598551 -24.4915 0 2 0 
3.578633 4.856915 -3.173527 0.002983758 1.532044 -1.285626 
-3.860873 4.856915 -3.190792 0.001491879 0.7660218 -0.6428128 
-3.481083 5.133126 -2.860759 0.002983758 1.532044 -1.285626 
3.198843 5.133125 -2.845256 0.001491879 0.7660218 -0.6428128 
-3.860873 4.856915 -3.190792 -0.003179524 1.457033 1.370053 
3.578633 4.856915 -3.173527 -0.001589762 0.7285165 0.6850265 
3.241195 5.180273 -3.518197 -0.003179524 1.457033 1.370053 
-3.523435 5.180273 -3.533896 -0.001589762 0.7285165 0.6850265 
3.578633 -0.598552 -3.173527 3 -1.748108e-07 -1.265611e-07 
3.578633 4.856915 -10.70882 2 -1.748108e-07 -1.265611e-07 
3.578633 4.856915 -3.173527 3 -8.740539e-08 -6.328055e-08 
3.578633 4.856915 3.265434 1 0 0 
3.578633 4.856915 3.265434 0 0 2 
-3.860873 4.856915 3.265434 0 0 1 
-3.860873 -0.598551 3.265434 -1 0 0 
-3.860873 4.856915 3.265434 -2 0 0 
-3.481083 5.133126 2.936282 0 0 -2 
3.198843 5.133125 2.936282 0 0 -1 
3.198843 -0.266159 2.936282 0 0 -2 
-3.481084 -0.266159 2.936282 0 0 -1 
-3.860873 4.856915 -3.190792 -1.176343 1.617473 0 
-3.860873 4.856915 3.265434 -0.5881715 0.8087363 0 
-3.481083 5.133126 2.936282 -1.176343 1.617473 0 
-3.481083 5.133126 -2.860759 -0.5881715 0.8087363 0 
-3.860873 4.856915 3.265434 1.090216e-07 1.532046 1.285627 
3.578633 4.856915 3.265434 5.451079e-08 0.7660228 0.6428134 
3.198843 5.133125 2.936282 1.090216e-07 1.532046 1.285627 
-3.481083 5.133126 2.936282 5.451079e-08 0.7660228 0.6428134 
3.578633 4.856915 3.265434 1.17634 1.617474 0 
3.578633 4.856915 -3.173527 0.5881702 0.8087372 0 
3.198843 5.133125 -2.845256 1.17634 1.617474 0 
3.198843 5.133125 2.936282 0.5881702 0.8087372 0 
-3.481084 -0.266159 2.936282 0 3 0 
3.198843 -0.266159 2.936282 0 1 0 
3.198843 -0.266159 -2.845256 0 2 0 
3.198843 -0.266159 -2.845256 0 1 0 
0.735344 -0.266159 -2.850974 0 1 0 
-0.93691 -0.266159 -2.854854 0 1 0 
-0.93691 -0.266159 -2.854854 0 4 0 
-3.481084 -0.266159 -2.860759 0 1 0 
3.198843 5.133125 2.936282 -2 0 0 
3.198843 5.133125 -2.845256 -1 0 0 
3.198843 -0.266159 -2.845256 -2 0 0 
3.198843 -0.266159 2.936282 -1 0 0 
-3.481083 5.133126 -2.860759 -0.009283215 -1.54328e-07 3.999989 
-3.481084 -0.266159 -2.860759 -0.002320949 5.124356e-10 0.9999973 
-0.93691 -0.266159 -2.854854 -0.004641472 2.01206e-07 1.999995 
-0.918956 2.995309 -2.854813 -0.004641448 -7.955316e-08 1.999995 
0.735344 -0.266159 -2.850974 -0.00232108 0 0.9999973 
3.198843 -0.266159 -2.845256 -0.00232108 0 0.9999973 
3.198843 5.133125 -2.845256 -0.004641897 -7.528731e-08 1.999995 
0.743356 2.918314 -2.850955 -0.004641742 -3.555341e-07 1.999995 
0.743356 2.918314 -2.850955 -0.002320749 -1.50605e-07 0.9999973 
0.735344 -0.266159 -2.850974 -0.002320749 -1.50605e-07 0.9999973 
3.198843 5.133125 -2.845256 -0.002320749 -1.50605e-07 0.9999973 
-3.481083 5.133126 -2.860759 2 -4.415744e-07 0 
-3.481083 5.133126 2.936282 1 -2.207872e-07 0 
-3.481084 -0.266159 2.936282 2 -4.415744e-07 0 
-3.481084 -0.266159 -2.860759 1 -2.207872e-07 0 
3.241195 5.180273 -3.518197 -2 1.628744e-07 1.391875e-07 
3.241195 5.180273 -10.36992 -1 8.143718e-08 6.959375e-08 
3.241194 -0.675003 -10.36992 -2 1.628744e-07 1.391875e-07 
3.241195 -0.675004 -3.518197 -1 8.143718e-08 6.959375e-08 
-3.860872 4.856916 -10.81889 -1.383767 1.444018 1.048955e-07 
-3.860873 4.856915 -3.190792 -0.6918837 0.722009 5.244777e-08 
-3.523435 5.180273 -3.533896 -1.383767 1.444018 1.048955e-07 
-3.523435 5.180274 -10.47001 -0.6918837 0.722009 5.244777e-08 
3.578633 4.856915 -10.70882 0.02027054 1.456961 -1.369984 
-3.860872 4.856916 -10.81889 0.01013527 0.7284804 -0.6849918 
-3.523435 5.180274 -10.47001 0.02027054 1.456961 -1.369984 
3.241195 5.180273 -10.36992 0.01013527 0.7284804 -0.6849918 
3.578633 4.856915 -3.173527 1.383766 1.444019 0 
3.578633 4.856915 -10.70882 0.6918829 0.7220097 0 
3.241195 5.180273 -10.36992 1.383766 1.444019 0 
3.241195 5.180273 -3.518197 0.6918829 0.7220097 0 
-3.523435 -0.675003 -10.47001 0 3 0 
-3.523435 -0.675003 -3.533896 0 1 0 
-0.910422 -0.675003 -3.527832 0 3 0 
0.766326 -0.675003 -3.523941 4.090841e-07 6 1.478867e-07 
3.241195 -0.675004 -3.518197 4.090841e-07 1 1.478867e-07 
3.241194 -0.675003 -10.36992 4.090841e-07 2 1.478867e-07 
3.241194 -0.675003 -10.36992 0 1 0 
0.854461 -0.675003 -10.40524 0 1 0 
-1.251472 -0.675003 -10.43639 0 1 0 
-1.251472 -0.675003 -10.43639 0 2 0 
3.241195 5.180273 -3.518197 0.004641645 3.650399e-07 -1.999995 
3.241195 -0.675004 -3.518197 0.002320917 0 -0.9999973 
0.766326 -0.675003 -3.523941 0.002320917 0 -0.9999973 
3.241195 5.180273 -3.518197 0.00232016 3.198318e-07 -0.9999973 
0.766326 -0.675003 -3.523941 0.00232016 3.198318e-07 -0.9999973 
0.739542 2.790222 -3.524002 0.00232016 3.198318e-07 -0.9999973 
-0.910422 -0.675003 -3.527832 0.002320663 0 -0.9999973 
-3.523435 -0.675003 -3.533896 0.002320663 0 -0.9999973 
-3.523435 5.180273 -3.533896 0.00464139 3.650399e-07 -1.999995 
3.241195 5.180273 -3.518197 0.002321584 -1.17103e-06 -0.9999973 
0.739542 2.790222 -3.524002 0.002321584 -1.17103e-06 -0.9999973 
-0.872637 2.887199 -3.527745 0.002321584 -1.17103e-06 -0.9999973 
-0.872637 2.887199 -3.527745 0.002320255 -1.820229e-07 -0.9999973 
-0.910422 -0.675003 -3.527832 0.002320255 -1.820229e-07 -0.9999973 
-3.523435 5.180273 -3.533896 0.002320255 -1.820229e-07 -0.9999973 
-0.872637 2.887199 -3.527745 0.002320728 3.650399e-07 -0.9999973 
-3.523435 5.180274 -10.47001 2 0 0 
-3.523435 5.180273 -3.533896 1 0 0 
-3.523435 -0.675003 -3.533896 2 0 0 
-3.523435 -0.675003 -10.47001 1 0 0 
-3.523435 5.180274 -10.47001 -0.02958889 3.756819e-07 1.999781 
-3.523435 -0.675003 -10.47001 -0.01479442 0 0.9998906 
-1.251472 -0.675003 -10.43639 -0.01479442 0 0.9998906 
-3.523435 5.180274 -10.47001 -0.01479294 5.767091e-07 0.9998906 
-1.251472 -0.675003 -10.43639 -0.01479294 5.767091e-07 0.9998906 
-1.219968 2.183316 -10.43593 -0.01479294 5.767091e-07 0.9998906 
0.854461 -0.675003 -10.40524 -0.01479457 2.132315e-09 0.9998906 
3.241194 -0.675003 -10.36992 -0.01479457 2.132315e-09 0.9998906 
3.241195 5.180273 -10.36992 -0.01479457 2.132315e-09 0.9998906 
-3.523435 5.180274 -10.47001 -0.01479586 -1.670224e-06 0.9998905 
-1.219968 2.183316 -10.43593 -0.01479586 -1.670224e-06 0.9998905 
0.903224 2.155046 -10.40451 -0.01479586 -1.670224e-06 0.9998905 
0.903224 2.155046 -10.40451 -0.01479332 -5.087375e-07 0.9998906 
0.854461 -0.675003 -10.40524 -0.01479332 -5.087375e-07 0.9998906 
3.241195 5.180273 -10.36992 -0.01479332 -5.087375e-07 0.9998906 
3.241195 5.180273 -10.36992 -0.01479446 3.756819e-07 0.9998906 
0.903224 2.155046 -10.40451 -0.01479446 3.756819e-07 0.9998906 
-0.915069 -0.675003 -1.525825 0 2 0 
0.761678 -0.675003 -1.521933 0 1 0 
0.735344 -0.266159 -2.850974 0 1 0 
0.741065 -0.266159 -5.316182 0 2 0 
-0.931189 -0.266159 -5.320063 0 1 0 
3 0 1 2 
3 0 2 3 
3 4 5 6 
3 4 6 7 
3 8 9 10 
3 11 12 13 
3 14 15 16 
3 10 17 8 
3 18 19 20 
3 18 20 21 
3 22 23 24 
3 24 25 26 
3 27 22 24 
3 24 26 27 
3 28 29 30 
3 31 32 33 
3 34 35 36 
3 37 38 39 
3 40 41 42 
3 43 36 44 
3 45 46 47 
3 45 47 48 
3 49 50 51 
3 52 53 54 
3 49 51 52 
3 52 54 49 
3 55 56 57 
3 55 57 58 
3 59 60 61 
3 59 61 62 
3 63 10 64 
3 63 64 65 
3 17 63 65 
3 17 65 66 
3 5 4 67 
3 5 67 68 
3 46 69 70 
3 46 70 47 
3 71 72 73 
3 71 73 74 
3 75 76 77 
3 75 77 78 
3 79 80 81 
3 79 81 82 
3 83 84 85 
3 83 85 86 
3 87 88 89 
3 90 91 92 
3 93 94 87 
3 89 93 87 
3 95 96 97 
3 95 97 98 
3 99 100 101 
3 99 101 102 
3 103 104 105 
3 99 102 106 
3 107 108 109 
3 105 99 106 
3 110 111 112 
3 110 112 113 
3 114 115 116 
3 114 116 117 
3 118 119 120 
3 118 120 121 
3 122 123 124 
3 122 124 125 
3 126 127 128 
3 126 128 129 
3 130 131 132 
3 133 134 135 
3 130 132 133 
3 136 137 138 
3 139 130 133 
3 133 135 139 
3 140 141 142 
3 143 144 145 
3 146 147 148 
3 149 150 151 
3 152 153 154 
3 148 140 155 
3 156 157 158 
3 156 158 159 
3 160 161 162 
3 163 164 165 
3 166 167 168 
3 169 170 171 
3 172 173 174 
3 175 160 176 
3 133 132 177 
3 133 177 178 
3 93 179 180 
3 93 180 181 
